P3 (Philadelphia Permitting Predictions)
…
A summary of mean permit counts by year and by tract is generated which shows an upward trend in permits issued and larger concentrations in the Kensington and Fishtown tracts. This also confirms the earlier assessment of trend inferred from the facetted maps.

knitr::opts_chunk$set(cache=TRUE)

# mean number issued by year by tract?
phillyTracts.long %>% group_by(GEOID) %>% summarise(avg = mean(permitCount)) %>%
  arrange(desc(avg)) # arrange top 10 in descending order

## Simple feature collection with 384 features and 2 fields
## geometry type:  MULTIPOLYGON
## dimension:      XY
## bbox:           xmin: -75.28027 ymin: 39.86571 xmax: -74.95616 ymax: 40.13799
## epsg (SRID):    4326
## proj4string:    +proj=longlat +datum=WGS84 +no_defs
## # A tibble: 384 x 3
##    GEOID       avg                                                 geometry
##    <chr>     <dbl>                                       <MULTIPOLYGON []>
##  1 42101016~  66.2 (((-75.13178 39.97936, -75.13303 39.98009, -75.13319 39~
##  2 42101014~  44.9 (((-75.14608 39.97283, -75.14583 39.97421, -75.14556 39~
##  3 42101036~  42.4 (((-75.14071 39.96414, -75.13808 39.96294, -75.13886 39~
##  4 42101003~  41.8 (((-75.18142 39.93216, -75.18132 39.93259, -75.18116 39~
##  5 42101015~  36.8 (((-75.16236 39.98084, -75.16393 39.98104, -75.16551 39~
##  6 42101014~  35   (((-75.1295 39.95918, -75.13012 39.95871, -75.13022 39.~
##  7 42101014~  30.5 (((-75.16096 39.97616, -75.15853 39.97585, -75.15878 39~
##  8 42101036~  29.1 (((-74.99712 40.10815, -75.00096 40.11139, -75.00241 40~
##  9 42101013~  27.8 (((-75.18144 39.97292, -75.18215 39.97301, -75.18539 39~
## 10 42101015~  26.5 (((-75.12432 39.975, -75.12339 39.9744, -75.12269 39.97~
## # ... with 374 more rows
…
